<?xml version="1.0" encoding="UTF-8"?>
<svg xmlns="http://www.w3.org/2000/svg" xmlns:xlink="http://www.w3.org/1999/xlink" width="16pt" height="18pt" viewBox="0 0 16 18" version="1.1">
<g id="surface1">
<path style=" stroke:none;fill-rule:nonzero;fill:rgb(0%,0%,0%);fill-opacity:1;" d="M 14.285156 2.25 L 12.570312 2.25 L 12.570312 0.5625 C 12.570312 0.253906 12.3125 0 12 0 L 10.855469 0 C 10.542969 0 10.285156 0.253906 10.285156 0.5625 L 10.285156 2.25 L 5.714844 2.25 L 5.714844 0.5625 C 5.714844 0.253906 5.457031 0 5.144531 0 L 4 0 C 3.6875 0 3.429688 0.253906 3.429688 0.5625 L 3.429688 2.25 L 1.714844 2.25 C 0.769531 2.25 0 3.007812 0 3.9375 L 0 16.3125 C 0 17.242188 0.769531 18 1.714844 18 L 14.285156 18 C 15.230469 18 16 17.242188 16 16.3125 L 16 3.9375 C 16 3.007812 15.230469 2.25 14.285156 2.25 Z M 14.285156 5.625 L 14.285156 8.4375 L 10.855469 8.4375 L 10.855469 5.625 Z M 6.285156 12.375 L 6.285156 9.5625 L 9.714844 9.5625 L 9.714844 12.375 Z M 9.714844 13.5 L 9.714844 16.3125 L 6.285156 16.3125 L 6.285156 13.5 Z M 5.144531 12.375 L 1.714844 12.375 L 1.714844 9.5625 L 5.144531 9.5625 Z M 6.285156 8.4375 L 6.285156 5.625 L 9.714844 5.625 L 9.714844 8.4375 Z M 10.855469 9.5625 L 14.285156 9.5625 L 14.285156 12.375 L 10.855469 12.375 Z M 5.144531 5.625 L 5.144531 8.4375 L 1.714844 8.4375 L 1.714844 5.625 Z M 1.714844 16.101562 L 1.714844 13.5 L 5.144531 13.5 L 5.144531 16.3125 L 1.929688 16.3125 C 1.8125 16.3125 1.714844 16.21875 1.714844 16.101562 Z M 14.070312 16.3125 L 10.855469 16.3125 L 10.855469 13.5 L 14.285156 13.5 L 14.285156 16.101562 C 14.285156 16.21875 14.1875 16.3125 14.070312 16.3125 Z M 14.070312 16.3125 "/>
</g>
</svg>
